Forms of given discriminant representing given prime.
d = -759, p = 6101
(6101, 2369, 230)
=[T+]=> (230, -1909, 3962)
=[T+]=> (230, -1449, 2283)
=[T+]=> (230, -989, 1064)
=[T+]=> (230, -529, 305)
=[T+]=> (230, -69, 6)
=[S]=> (6, 69, 230)
=[T-]=> (6, 57, 167)
=[T-]=> (6, 45, 116)
=[T-]=> (6, 33, 77)
=[T-]=> (6, 21, 50)
=[T-]=> (6, 9, 35)
=[T-]=> (6, -3, 32)

(6101, 9833, 3962)
=[T+]=> (3962, -1909, 230)
=[S]=> (230, 1909, 3962)
=[T-]=> (230, 1449, 2283)
=[T-]=> (230, 989, 1064)
=[T-]=> (230, 529, 305)
=[T-]=> (230, 69, 6)
=[S]=> (6, -69, 230)
=[T+]=> (6, -57, 167)
=[T+]=> (6, -45, 116)
=[T+]=> (6, -33, 77)
=[T+]=> (6, -21, 50)
=[T+]=> (6, -9, 35)
=[T+]=> (6, 3, 32)

d = -831, p = 2251
Prime p represented by some form if and only if d is a quadratic residue mod 4p.

d = -1343, p = 2411
(2411, 747, 58)
=[T+]=> (58, -631, 1722)
=[T+]=> (58, -515, 1149)
=[T+]=> (58, -399, 692)
=[T+]=> (58, -283, 351)
=[T+]=> (58, -167, 126)
=[T+]=> (58, -51, 17)
=[S]=> (17, 51, 58)
=[T-]=> (17, 17, 24)

